{
  "C6": {
    "thumb": "*",
    "left_1": "*",
    "left_2": "*",
    "left_3": "*",
    "right_1": "*",
    "right_2": "*",
    "right_3": "*",
    "right_4": "*"
  },
  "C#6": {
    "thumb": "*",
    "left_1": "*",
    "left_2": "*",
    "left_3": "*",
    "right_1": "*",
    "right_2": "*",
    "right_3": "*",
    "right_4": "@"
  },
  "D6": {
    "thumb": "*",
    "left_1": "*",
    "left_2": "*",
    "left_3": "*",
    "right_1": "*",
    "right_2": "*",
    "right_3": "*",
    "right_4": "0"
  },
  "D#6": {
    "thumb": "*",
    "left_1": "*",
    "left_2": "*",
    "left_3": "*",
    "right_1": "*",
    "right_2": "*",
    "right_3": "@",
    "right_4": "0"
  },
  "E6": {
    "thumb": "*",
    "left_1": "*",
    "left_2": "*",
    "left_3": "*",
    "right_1": "*",
    "right_2": "*",
    "right_3": "0",
    "right_4": "0"
  },
  "F6": {
    "thumb": "*",
    "left_1": "*",
    "left_2": "*",
    "left_3": "*",
    "right_1": "*",
    "right_2": "0",
    "right_3": "0",
    "right_4": "0"
  },
  "F#6": {
    "thumb": "*",
    "left_1": "*",
    "left_2": "*",
    "left_3": "*",
    "right_1": "0",
    "right_2": "*",
    "right_3": "*",
    "right_4": "*"
  },
  "G6": {
    "thumb": "*",
    "left_1": "*",
    "left_2": "*",
    "left_3": "*",
    "right_1": "0",
    "right_2": "0",
    "right_3": "0",
    "right_4": "0"
  },
  "G#6": {
    "thumb": "*",
    "left_1": "*",
    "left_2": "*",
    "left_3": "0",
    "right_1": "*",
    "right_2": "*",
    "right_3": "@",
    "right_4": "0"
  },
  "A6": {
    "thumb": "*",
    "left_1": "*",
    "left_2": "*",
    "left_3": "0",
    "right_1": "0",
    "right_2": "0",
    "right_3": "0",
    "right_4": "0"
  },
  "A#6": {
    "thumb": "*",
    "left_1": "0",
    "left_2": "*",
    "left_3": "0",
    "right_1": "0",
    "right_2": "*",
    "right_3": "*",
    "right_4": "*"
  },
  "B6": {
    "thumb": "*",
    "left_1": "*",
    "left_2": "0",
    "left_3": "0",
    "right_1": "0",
    "right_2": "0",
    "right_3": "0",
    "right_4": "0"
  },
  "C7": {
    "thumb": "*",
    "left_1": "0",
    "left_2": "*",
    "left_3": "0",
    "right_1": "0",
    "right_2": "0",
    "right_3": "0",
    "right_4": "0"
  },
  "C#7": {
    "thumb": "*",
    "left_1": "*",
    "left_2": "0",
    "left_3": "0",
    "right_1": "0",
    "right_2": "0",
    "right_3": "0",
    "right_4": "0"
  },
  "D7": {
    "thumb": "0",
    "left_1": "*",
    "left_2": "0",
    "left_3": "0",
    "right_1": "0",
    "right_2": "0",
    "right_3": "0",
    "right_4": "0"
  },
  "D#7": {
    "thumb": "0",
    "left_1": "0",
    "left_2": "*",
    "left_3": "*",
    "right_1": "*",
    "right_2": "*",
    "right_3": "*",
    "right_4": "0"
  },
  "E7": {
    "thumb": "@",
    "left_1": "*",
    "left_2": "*",
    "left_3": "*",
    "right_1": "*",
    "right_2": "*",
    "right_3": "0",
    "right_4": "0"
  },
  "F7": {
    "thumb": "@",
    "left_1": "*",
    "left_2": "*",
    "left_3": "*",
    "right_1": "*",
    "right_2": "0",
    "right_3": "0",
    "right_4": "0"
  },
  "F#7": {
    "thumb": "@",
    "left_1": "*",
    "left_2": "*",
    "left_3": "*",
    "right_1": "0",
    "right_2": "*",
    "right_3": "0",
    "right_4": "*"
  },
  "G7": {
    "thumb": "@",
    "left_1": "*",
    "left_2": "*",
    "left_3": "*",
    "right_1": "0",
    "right_2": "0",
    "right_3": "0",
    "right_4": "0"
  },
  "G#7": {
    "thumb": "@",
    "left_1": "*",
    "left_2": "*",
    "left_3": "*",
    "right_1": "0",
    "right_2": "*",
    "right_3": "*",
    "right_4": "*"
  },
  "A7": {
    "thumb": "@",
    "left_1": "*",
    "left_2": "*",
    "left_3": "0",
    "right_1": "0",
    "right_2": "0",
    "right_3": "0",
    "right_4": "0"
  },
  "A#7": {
    "thumb": "@",
    "left_1": "*",
    "left_2": "*",
    "left_3": "0",
    "right_1": "*",
    "right_2": "*",
    "right_3": "*",
    "right_4": "0"
  },
  "B7": {
    "thumb": "@",
    "left_1": "*",
    "left_2": "0",
    "left_3": "0",
    "right_1": "*",
    "right_2": "*",
    "right_3": "0",
    "right_4": "0"
  }
}
